{
    "plugin_pim_dataport": {
        "id": "9",
        "name": "Import - Excel - Aschehoug",
        "description": "",
        "sourcetype": "excel",
        "sourceconfig": "a:8:{s:4:\"file\";s:52:\"\/var\/www\/html\/var\/pool\/import\/excel-aschehoug\/*.xlsx\";s:10:\"autoImport\";b:0;s:11:\"assetSource\";s:1:\"\/\";s:13:\"archiveFolder\";s:53:\"\/var\/www\/html\/var\/pool\/archive\/import-excel-aschehoug\";s:9:\"hasHeader\";b:1;s:5:\"sheet\";s:0:\"\";s:8:\"dataArea\";s:0:\"\";s:6:\"fields\";a:8:{s:7:\"field_1\";a:1:{s:6:\"column\";s:4:\"ISBN\";}s:7:\"field_2\";a:1:{s:6:\"column\";s:6:\"Tittel\";}s:7:\"field_3\";a:1:{s:6:\"column\";s:9:\"Forfatter\";}s:7:\"field_4\";a:1:{s:6:\"column\";s:8:\"Kategori\";}s:7:\"field_5\";a:1:{s:6:\"column\";s:6:\"Forlag\";}s:7:\"field_6\";a:1:{s:6:\"column\";s:4:\"Pris\";}s:7:\"field_7\";a:1:{s:6:\"column\";s:10:\"Innbinding\";}s:7:\"field_8\";a:1:{s:6:\"column\";s:19:\"Forventet lagerdato\";}}}",
        "targetconfig": "a:10:{s:4:\"mode\";s:1:\"3\";s:9:\"itemClass\";s:3:\"PRD\";s:10:\"itemFolder\";s:15:\"\/Test\/Aschehoug\";s:14:\"masterDocument\";s:0:\"\";s:19:\"optimizeInheritance\";s:1:\"0\";s:16:\"javascriptEngine\";s:3:\"php\";s:11:\"assetFolder\";s:1:\"\/\";s:8:\"idPrefix\";s:0:\"\";s:13:\"categoryClass\";s:0:\"\";s:17:\"fieldnameProducts\";s:0:\"\";}"
    },
    "plugin_pim_fieldmapping": [
        {
            "dataportId": "9",
            "fieldName": "binding",
            "locale": "",
            "fieldNo": "7",
            "keyMapping": "0",
            "format": "a:1:{s:14:\"writeProtected\";b:0;}",
            "calculation": "$innbinding = $params['value'];\nswitch ($innbinding) {\n  case \"IB\":\n    $innbinding = \"Innbundet\";\n    break;\n   case \"Pocket\":\n    $innbinding = \"Heftet\";\n    break;\n  default:\n    $innbinding = \"\";\n}\nreturn $innbinding;",
            "brickName": "",
            "targetBrickField": null
        },
        {
            "dataportId": "9",
            "fieldName": "creator",
            "locale": "",
            "fieldNo": "3",
            "keyMapping": "0",
            "format": "a:3:{s:10:\"purgeitems\";b:0;s:9:\"overwrite\";b:0;s:14:\"writeProtected\";b:0;}",
            "calculation": "return \\AppBundle\\DataDirector\\CreatorTranslator::translate($params['value']);",
            "brickName": "",
            "targetBrickField": null
        },
        {
            "dataportId": "9",
            "fieldName": "isbn",
            "locale": "",
            "fieldNo": "1",
            "keyMapping": "0",
            "format": "a:2:{s:21:\"translateFromLanguage\";s:0:\"\";s:14:\"writeProtected\";b:0;}",
            "calculation": "",
            "brickName": "",
            "targetBrickField": null
        },
        {
            "dataportId": "9",
            "fieldName": "literatureType",
            "locale": "",
            "fieldNo": "4",
            "keyMapping": "0",
            "format": "a:1:{s:14:\"writeProtected\";b:0;}",
            "calculation": "$litteraturType = $params['value'];\nswitch ($litteraturType) {\n  case \"Dokumentar\":\n    $litteraturType = \"Faglitteratur\";\n    break;\n   case \"Familie og helse\":\n    $litteraturType = \"Faglitteratur\";\n    break;\n   case \"Kosthold\/Diett\":\n    $litteraturType = \"Faglitteratur\";\n    break;\n   case \"Krim\":\n    $litteraturType = \"Skj\u00f8nnlitteratur\";\n    break;\n   case \"Roman\":\n    $litteraturType = \"Skj\u00f8nnlitteratur\";\n    break;\n  default:\n    $litteraturType = \"\";\n}\nreturn $litteraturType;",
            "brickName": "",
            "targetBrickField": null
        },
        {
            "dataportId": "9",
            "fieldName": "price",
            "locale": "",
            "fieldNo": "6",
            "keyMapping": "0",
            "format": "a:3:{s:16:\"decimalSeparator\";s:1:\".\";s:17:\"groupingSeparator\";s:1:\",\";s:14:\"writeProtected\";b:0;}",
            "calculation": "",
            "brickName": "",
            "targetBrickField": null
        },
        {
            "dataportId": "9",
            "fieldName": "productId",
            "locale": "",
            "fieldNo": "1",
            "keyMapping": "1",
            "format": "a:4:{s:21:\"translateFromLanguage\";s:0:\"\";s:9:\"overwrite\";b:0;s:14:\"writeProtected\";b:0;s:10:\"purgeitems\";b:0;}",
            "calculation": "",
            "brickName": "",
            "targetBrickField": null
        },
        {
            "dataportId": "9",
            "fieldName": "publicationDate",
            "locale": "",
            "fieldNo": "8",
            "keyMapping": "0",
            "format": "a:2:{s:10:\"dateFormat\";s:5:\"d.m.Y\";s:14:\"writeProtected\";b:0;}",
            "calculation": "",
            "brickName": "",
            "targetBrickField": null
        },
        {
            "dataportId": "9",
            "fieldName": "publisher",
            "locale": "",
            "fieldNo": "5",
            "keyMapping": "0",
            "format": "a:2:{s:21:\"translateFromLanguage\";s:0:\"\";s:14:\"writeProtected\";b:0;}",
            "calculation": "",
            "brickName": "",
            "targetBrickField": null
        },
        {
            "dataportId": "9",
            "fieldName": "publisherCategory",
            "locale": "",
            "fieldNo": "4",
            "keyMapping": "0",
            "format": "a:4:{s:21:\"translateFromLanguage\";s:0:\"\";s:9:\"overwrite\";b:0;s:14:\"writeProtected\";b:0;s:10:\"purgeitems\";b:0;}",
            "calculation": "",
            "brickName": "",
            "targetBrickField": null
        },
        {
            "dataportId": "9",
            "fieldName": "seriesNumber",
            "locale": "",
            "fieldNo": "2",
            "keyMapping": "0",
            "format": "a:4:{s:21:\"translateFromLanguage\";s:0:\"\";s:9:\"overwrite\";b:0;s:14:\"writeProtected\";b:0;s:10:\"purgeitems\";b:0;}",
            "calculation": "$value = $params['value'];\n\n\/\/ Skill ut evt. serietittel og undertittel. Test: https:\/\/regexr.com\/5l88p\nif (preg_match('\/^(?:(.*?)(\\d*)\\. )?(.+?)(?: - (.*))?$\/', $value, $matches)) {\n    $value = $matches[2];\n} else {\n    $value = null;\n}\n\nreturn $value;",
            "brickName": "",
            "targetBrickField": null
        },
        {
            "dataportId": "9",
            "fieldName": "seriesTitle",
            "locale": "",
            "fieldNo": "2",
            "keyMapping": "0",
            "format": "a:4:{s:21:\"translateFromLanguage\";s:0:\"\";s:9:\"overwrite\";b:0;s:14:\"writeProtected\";b:0;s:10:\"purgeitems\";b:0;}",
            "calculation": "$value = $params['value'];\n\n\/\/ Skill ut evt. serietittel og undertittel. Test: https:\/\/regexr.com\/5l88p\nif (preg_match('\/^(?:(.*?)(\\d*)\\. )?(.+?)(?: - (.*))?$\/', $value, $matches)) {\n    $value = $matches[1];\n} else {\n    $value = null;\n}\n\nreturn $value;",
            "brickName": "",
            "targetBrickField": null
        },
        {
            "dataportId": "9",
            "fieldName": "subTitle",
            "locale": "",
            "fieldNo": "2",
            "keyMapping": "0",
            "format": "a:4:{s:21:\"translateFromLanguage\";s:0:\"\";s:9:\"overwrite\";b:0;s:14:\"writeProtected\";b:0;s:10:\"purgeitems\";b:0;}",
            "calculation": "$value = $params['value'];\n\n\/\/ Skill ut evt. serietittel og undertittel. Test: https:\/\/regexr.com\/5l88p\nif (preg_match('\/^(?:(.*?)(\\d*)\\. )?(.+?)(?: - (.*))?$\/', $value, $matches)) {\n    $value = $matches[4];\n} else {\n    $value = null;\n}\n\nreturn $value;",
            "brickName": "",
            "targetBrickField": null
        },
        {
            "dataportId": "9",
            "fieldName": "targetAudience",
            "locale": "",
            "fieldNo": "4",
            "keyMapping": "0",
            "format": "a:1:{s:14:\"writeProtected\";b:0;}",
            "calculation": "if($params['value'] == 'Barn' || $params['value'] == 'Ungdom') {\n   return 'Barn\/ungdom';\n}\nif($params['value'] == 'Voksne') {\n   return 'Voksne';\n}",
            "brickName": "",
            "targetBrickField": null
        },
        {
            "dataportId": "9",
            "fieldName": "title",
            "locale": "",
            "fieldNo": "2",
            "keyMapping": "0",
            "format": "a:4:{s:21:\"translateFromLanguage\";s:0:\"\";s:9:\"overwrite\";b:0;s:14:\"writeProtected\";b:0;s:10:\"purgeitems\";b:0;}",
            "calculation": "$value = $params['value'];\n\n\/\/ Skill ut evt. serietittel og undertittel. Test: https:\/\/regexr.com\/5l88p\nif (preg_match('\/^(?:(.*?)(\\d*)\\. )?(.+?)(?: - (.*))?$\/', $value, $matches)) {\n    $value = $matches[3];\n}\n\nreturn $value;",
            "brickName": "",
            "targetBrickField": null
        }
    ],
    "plugin_pim_rawitemField": [
        {
            "dataportId": "9",
            "fieldNo": "1",
            "name": "ISBN",
            "priority": "0"
        },
        {
            "dataportId": "9",
            "fieldNo": "2",
            "name": "Tittel",
            "priority": "1"
        },
        {
            "dataportId": "9",
            "fieldNo": "3",
            "name": "Forfatter",
            "priority": "2"
        },
        {
            "dataportId": "9",
            "fieldNo": "4",
            "name": "Kategori",
            "priority": "3"
        },
        {
            "dataportId": "9",
            "fieldNo": "5",
            "name": "Forlag",
            "priority": "4"
        },
        {
            "dataportId": "9",
            "fieldNo": "6",
            "name": "Pris",
            "priority": "5"
        },
        {
            "dataportId": "9",
            "fieldNo": "7",
            "name": "Innbinding",
            "priority": "6"
        },
        {
            "dataportId": "9",
            "fieldNo": "8",
            "name": "Forventet lagerdato",
            "priority": "7"
        }
    ]
}